Study Two: Confirmatory Data Analysis
…
write_csv(s2, "data/s2Processed.csv")

s2 %>% var_labels(mecscale_1 = "brainstem",
                        mecscale_2 = "Entrainment",
                        mecscale_3 = "Memory", 
                        mecscale_4 = "Conditioning",
                        mecscale_5 = "Imagery",
                        mecscale_6 = "Contagion", 
                        mecscale_7 = "Expectancy",
                        mecscale_8 = "Appraisal", 
                  reg.use_1 = "Regulatory Use Probability")

# A tibble: 382 x 108
      X1 ProlificID track_name sad.song artist_name sad.song.artist
   <dbl> <chr>      <chr>      <chr>    <chr>       <chr>          
 1     1 5aeaaf9b9… Hurt       Hurt     Johnny Cash Johnny cash    
 2     2 5abc11e6e… Stay       Stay     Rihanna     Rihanna        
 3     3 5bdcdee21… Kiss From… Kiss fr… Seal        Seal           
 4     4 5bba1e15e… We Don't … We don'… Charlie Pu… Charlie Puth f…
 5     5 5be504e4b… Lonely     Lonely   Akon        Akon           
 6     6 5ba91985c… I Started… I Start… Bee Gees    Bee Gees       
 7     7 5a622b2d1… Just When… Just Wh… Randy VanW… Randy vanwarmer
 8     8 5c009e38a… <NA>       I spoke… <NA>        XXXTENTACION   
 9     9 5bd617ac7… Hurt       Hurt     Johnny Cash Johnny Cash    
10    10 5be742dd0… Love Of M… Love of… Queen       Queen          
# … with 372 more rows, and 102 more variables: StartDate <chr>,
#   EndDate <chr>, Status <dbl>, IPAddress <chr>, Progress <dbl>,
#   `Duration (in seconds)` <dbl>, Finished.x <dbl>, RecordedDate <chr>,
#   ResponseId <chr>, RecipientLastName <chr>, RecipientFirstName <chr>,
#   RecipientEmail <chr>, ExternalReference <chr>, LocationLatitude <chr>,
#   LocationLongitude <chr>, DistributionChannel <chr>,
#   UserLanguage <chr>, musicaccess <dbl>, deq_1_1 <dbl>, deq_1_2 <dbl>,
#   deq_1_3 <dbl>, deq_1_4 <dbl>, `mip.timinmg_First Click` <dbl>,
#   `mip.timinmg_Last Click` <dbl>, `mip.timinmg_Page Submit` <dbl>,
…
